/home/alex/Dropbox/userFormServlet/src/main/java/ClientsTable.java
/home/alex/Dropbox/userFormServlet/src/main/java/AddClientServlet.java
/home/alex/Dropbox/userFormServlet/src/main/java/Client.java
/home/alex/Dropbox/userFormServlet/src/main/java/ClientDatabase.java
/home/alex/Dropbox/userFormServlet/src/main/java/ClientAlreadyExistsException.java
